14 Anexo I - Exemplo séries temporais | ESTUDOS ECOLÓGICOS 2021
…
A função STL que faz a decomposição da série usando loess no pacote feast é mais complexa que a que vimos no curso, e permite extrair outros parâmetros. Abaixo rodamos essa função de um jeito semelhante a que vimos no curso.

sin.ft <- sinasc.tb %>%
    model(STL(value ~ season(window = "periodic"))) %>%
    components()

Visualizando o resultado:

sin.ft %>%
    select(-.model)

## # A tsibble: 132 x 6 [1M]
##       index  value   trend season_year remainder season_adjust
##       <mth>  <dbl>   <dbl>       <dbl>     <dbl>         <dbl>
##  1 2009 jan 245519 240750.        686.     4083.       244833.
##  2 2009 fev 231136 240578.      -9737.      295.       240873.
##  3 2009 mar 269503 240407.      22947.     6150.       246556.
##  4 2009 abr 255525 240292.      12386.     2847.       243139.
##  5 2009 mai 246079 240177.      18905.   -13003.       227174.
##  6 2009 jun 236652 240045.       1972.    -5365.       234680.
##  7 2009 jul 237469 239912.       2646.    -5089.       234823.
##  8 2009 ago 232761 239730.      -4065.    -2904.       236826.
##  9 2009 set 245676 239548.      -4453.    10582.       250129.
## 10 2009 out 233188 239617.     -10137.     3708.       243325.
## # … with 122 more rows
…
