10 Dados de Área I | ESTUDOS ECOLÓGICOS 2021
…
unzip(zipfile = paste0(tmpdir, "/olinda.zip"), exdir = tmpdir)
dir(tmpdir)

Lendo o shape de Olinda e exibindo os primeiros registros:

olinda.sf <- read_sf(paste0(tmpdir, "/olinda.shp"),
    crs = 5535)
olinda.sf

## Simple feature collection with 241 features and 10 fields
## Geometry type: POLYGON
## Dimension:     XY
## Bounding box:  xmin: 289000 ymin: 9111000 xmax: 298400 ymax: 9121000
## CRS:           EPSG:5535
## # A tibble: 241 x 11
##       AREA PERIMETER SETOR_ SETOR_ID  VAR5 DENS_DEMO   SET CASES   POP DEPRIV                                                                                     geometry
##  *   <dbl>     <dbl>  <dbl>    <dbl> <int>     <dbl> <dbl> <dbl> <dbl>  <dbl>                                                                                <POLYGON [m]>
##  1  79139.     1270.      2        1   242     4380.   242     1   337  0.412 ((295638 9120506, 295599 9120446, 295506 9120324, 295599 9120260, 295560 9120190, 295520 ...
##  2 151153      2189.      3        2   224    10563.   224     6  1550  0.168 ((295909 9120474, 295909 9120473, 295893 9120443, 295889 9120405, 295884 9120395, 295868 ...
##  3 265037      2818.      4        3   223     6642.   223     5  1711  0.192 ((295909 9120473, 295909 9120474, 295913 9120481, 296371 9120195, 296299 9120071, 296465 ...
##  4 137696      2098.      5        4   229    13174.   229     1  1767  0.472 ((295527 9120106, 295691 9119937, 295716 9119911, 295774 9119851, 295783 9119842, 295791 ...
##  5 121873      3353.      6        5   228    13812.   228     1  1638  0.302 ((295560 9120190, 295604 9120260, 295642 9120238, 295617 9120180, 295616 9120179, 295770 ...
##  6  55007.     1078.      7        6   222    21309.   222     4  1139  0.097 ((296694 9119921, 296674 9119899, 296613 9119832, 296604 9119837, 296605 9119835, 296465 ...
##  7 225463      2028.      8        9   218     5422.   218     6  1186  0.141 ((298128 9119189, 297987 9119214, 298028 9119457, 298042 9119509, 298152 9119852, 298193 ...
##  8 184847      2547.      9       10   225    11724.   225     2  2108  0.199 ((296674 9119899, 296694 9119921, 296781 9119865, 296781 9119864, 296620 9119672, 296742 ...
##  9  82379.     1636.     10       11   227    13646.   227     1  1088  0.228 ((296142 9119871, 296308 9119748, 296309 9119747, 296305 9119743, 296305 9119742, 296197 ...
## 10  75166.     1094.     11       12   221    21053.   221     6  1535  0.223 ((296620 9119672, 296781 9119864, 297010 9119713, 296904 9119566, 296869 9119516, 296851 ...
## # … with 231 more rows
…
