tidyverse.md
…
A função está avisando duas coisas:
a. que usou ',' como separador decimal e '.' como separador de mil, e se quiseremos mais opções de controle devemos usar a função read_delim 
b. que usou com default que todas as colunas eram de inteiros com exceção a variável COD_PESS que foi usado o tipo double
Vamos inspecionar o objeto que retornou

xxxxxxxxxx

> pnad

# A tibble: 384,834 x 39

       COD_PESS    UF V0302 V8005 V1703 V1704 V1705 V1303 V1304 V1347 V1349 V1369 V4729

          <dbl> <int> <int> <int> <int> <int> <int> <int> <int> <int> <int> <int> <int>

 1 1.100002e+13    11     2    49    NA    NA    NA     2     4     3     5     3   218

 2 1.100002e+13    11     4    31     7     8     1     3     4     1     5     1   218

 3 1.100002e+13    11     2    51    NA    NA    NA     2     4     3     1     3   218

 4 1.100002e+13    11     4    46     7     8     7     2     4     3     5     3   217

 5 1.100002e+13    11     2    29    NA    NA    NA     2     4     3     5     3   218

 6 1.100002e+13    11     4    18    NA    NA    NA     2     4     1     7     3   218

 7 1.100002e+13    11     2    35    NA    NA    NA     2     4     1     5     3   218

 8 1.100002e+13    11     4    24    NA    NA    NA     2     4     1     3     3   218

 9 1.100002e+13    11     2     6    NA    NA    NA     2     4     1     7     3   218

10 1.100002e+13    11     4     4    NA    NA    NA     2     4     1     7     3   218

# ... with 384,824 more rows, and 26 more variables: REGIAO <int>, AUTO_DIC <int>,
…
colunas$cols$COD_PESS <- col_character()  #altera a coluna COD_PESS 

​

pnad2 <- read_csv2(arq,col_types = colunas) # le novamente usando o formato das colunas

Repare que desta vez passamos o arq em formto zip diretamente para a função!
A seguir para exibir o resultado.

xxxxxxxxxx

> pnad2

# A tibble: 384,834 x 39

         COD_PESS    UF V0302 V8005 V1703 V1704 V1705 V1303 V1304 V1347 V1349 V1369 V4729 REGIAO

            <chr> <int> <int> <int> <int> <int> <int> <int> <int> <int> <int> <int> <int>  <int>

 1 11000015001011    11     2    49    NA    NA    NA     2     4     3     5     3   218      1

 2 11000015001021    11     4    31     7     8     1     3     4     1     5     1   218      1

 3 11000015002011    11     2    51    NA    NA    NA     2     4     3     1     3   218      1

 4 11000015002021    11     4    46     7     8     7     2     4     3     5     3   217      1

 5 11000015002032    11     2    29    NA    NA    NA     2     4     3     5     3   218      1

 6 11000015002042    11     4    18    NA    NA    NA     2     4     1     7     3   218      1

 7 11000015003011    11     2    35    NA    NA    NA     2     4     1     5     3   218      1

 8 11000015003021    11     4    24    NA    NA    NA     2     4     1     3     3   218      1

 9 11000015003031    11     2     6    NA    NA    NA     2     4     1     7     3   218      1

10 11000015003041    11     4     4    NA    NA    NA     2     4     1     7     3   218      1

# ... with 384,824 more rows, and 25 more variables: AUTO_DIC <int>, DENTISTA <int>, USO_DIC <int>,
…
