15 Anexo II - Exemplos de Analise Espacial | ESTUDOS ECOLÓGICOS 2023
…
PE

## Simple feature collection with 184 features and 2 fields
## Geometry type: POLYGON
## Dimension:     XY
## Bounding box:  xmin: -41.36 ymin: -9.483 xmax: -34.81 ymax: -7.273
## Geodetic CRS:  WGS 84
## # A tibble: 184 × 3
##    NM_MUNICIP            CD_GEOCMU                                                                                         geom
##  * <chr>                 <chr>                                                                                    <POLYGON [°]>
##  1 ABREU E LIMA          2600054   ((-35.05 -7.88, -35.02 -7.888, -35.02 -7.888, -35 -7.894, -35 -7.895, -34.98 -7.9, -34.94...
##  2 AFOGADOS DA INGAZEIRA 2600104   ((-37.56 -7.639, -37.56 -7.64, -37.56 -7.641, -37.56 -7.642, -37.56 -7.643, -37.56 -7.644...
##  3 AFRÂNIO               2600203   ((-40.86 -8.371, -40.85 -8.446, -40.85 -8.459, -40.85 -8.462, -40.85 -8.526, -40.85 -8.55...
##  4 AGRESTINA             2600302   ((-35.92 -8.366, -35.9 -8.375, -35.9 -8.375, -35.9 -8.381, -35.9 -8.384, -35.9 -8.384, -3...
##  5 ÁGUA PRETA            2600401   ((-35.47 -8.546, -35.47 -8.545, -35.47 -8.549, -35.46 -8.549, -35.46 -8.549, -35.46 -8.54...
##  6 ÁGUAS BELAS           2600500   ((-36.87 -8.887, -36.87 -8.888, -36.87 -8.893, -36.87 -8.895, -36.87 -8.905, -36.87 -8.90...
##  7 ALAGOINHA             2600609   ((-36.76 -8.599, -36.76 -8.6, -36.77 -8.603, -36.77 -8.602, -36.77 -8.602, -36.78 -8.603,...
##  8 ALIANÇA               2600708   ((-35.16 -7.503, -35.15 -7.506, -35.15 -7.507, -35.15 -7.509, -35.15 -7.51, -35.14 -7.51,...
##  9 ALTINHO               2600807   ((-35.97 -8.536, -36 -8.547, -36 -8.547, -36 -8.547, -36 -8.534, -36 -8.534, -36 -8.534, ...
## 10 AMARAJI               2600906   ((-35.41 -8.428, -35.41 -8.427, -35.41 -8.427, -35.41 -8.426, -35.41 -8.426, -35.41 -8.42...
## # ℹ 174 more rows
…
